Containers:
  [+] MainContainer:
   |            ID: 0x0000000000000000
   |        Bounds: IsValid=false, Min=(X=0.000 Y=0.000 Z=0.000), Max=(X=0.000 Y=0.000 Z=0.000)
   |     Transform: 0.000000,0.000000,0.000000|0.000000,0.000000,-0.000000|1.000000,1.000000,1.000000
   |     Container: /Game/FirstPerson/Maps/FirstPersonMap
   |  ActorDescs:
   |      - Guid:0EC409BC4C32AC5ADA911EBE6A559687 Class:StaticMeshActor Name:StaticMeshActor_UAID_2CF05DA2235F330801_1240703590 SpatiallyLoaded:true Bounds:IsValid=true, Min=(X=3050.000 Y=3050.000 Z=0.000), Max=(X=4175.000 Y=3150.000 Z=400.000) RuntimeGrid:None EditorOnly:false LevelBoundsRelevant:true HLODRelevant:true FolderPath:Playground FolderGuid:6C02BB504B69D1F3D7A624B130C18E5B Parent:00000000000000000000000000000000
   |      - Guid:0EDB289B45CB7E0977A6DBA74201EE76 Class:StaticMeshActor Name:StaticMeshActor_10 SpatiallyLoaded:true Bounds:IsValid=true, Min=(X=1300.000 Y=2060.000 Z=0.000), Max=(X=1400.000 Y=2535.000 Z=400.000) RuntimeGrid:None EditorOnly:false LevelBoundsRelevant:true HLODRelevant:true FolderPath:Playground FolderGuid:6C02BB504B69D1F3D7A624B130C18E5B Parent:00000000000000000000000000000000
   |      - Guid:168FCF2840CC576626A90D8C64F522E7 Class:StaticMeshActor Name:StaticMeshActor_UAID_2CF05DA2235F330801_1165918587 SpatiallyLoaded:true Bounds:IsValid=true, Min=(X=1320.000 Y=2330.000 Z=-50.000), Max=(X=4220.000 Y=3130.000 Z=0.000) RuntimeGrid:None EditorOnly:false LevelBoundsRelevant:true HLODRelevant:true FolderPath:Playground FolderGuid:6C02BB504B69D1F3D7A624B130C18E5B Parent:00000000000000000000000000000000
   |      - Guid:1E4F7DA940CBCC8380A24F8E333B109B Class:StaticMeshActor Name:StaticMeshActor_UAID_2CF05DA2235F330801_1769770595 SpatiallyLoaded:true Bounds:IsValid=true, Min=(X=4180.000 Y=2885.000 Z=-730.000), Max=(X=4280.000 Y=4360.000 Z=395.000) RuntimeGrid:None EditorOnly:false LevelBoundsRelevant:true HLODRelevant:true FolderPath:Playground FolderGuid:6C02BB504B69D1F3D7A624B130C18E5B Parent:00000000000000000000000000000000
   |      - Guid:203AC65C435891304099BD83EC06786D Class:StaticMeshActor Name:StaticMeshActor_UAID_2CF05DA2235F330801_1769770594 SpatiallyLoaded:true Bounds:IsValid=true, Min=(X=4220.000 Y=1920.000 Z=-770.000), Max=(X=5970.000 Y=5470.000 Z=-720.000) RuntimeGrid:None EditorOnly:false LevelBoundsRelevant:true HLODRelevant:true FolderPath:Playground FolderGuid:6C02BB504B69D1F3D7A624B130C18E5B Parent:00000000000000000000000000000000
   |      - Guid:21262252453B37957EF29F82ABA2413B Class:TextRenderActor Name:TextRenderActor_1 SpatiallyLoaded:true Bounds:IsValid=true, Min=(X=-0.100 Y=1100.000 Z=65.013), Max=(X=-0.100 Y=2363.461 Z=215.013) RuntimeGrid:None EditorOnly:false LevelBoundsRelevant:true HLODRelevant:false FolderPath:None FolderGuid:00000000000000000000000000000000 Parent:00000000000000000000000000000000
   |      - Guid:273C4CD94120DF29735C29862EE47B34 Class:StaticMeshActor Name:StaticMeshActor_UAID_2CF05DA2235F330801_1237006589 SpatiallyLoaded:true Bounds:IsValid=true, Min=(X=1420.000 Y=3050.000 Z=0.000), Max=(X=2545.000 Y=3150.000 Z=400.000) RuntimeGrid:None EditorOnly:false LevelBoundsRelevant:true HLODRelevant:true FolderPath:Playground FolderGuid:6C02BB504B69D1F3D7A624B130C18E5B Parent:00000000000000000000000000000000
   |      - Guid:2B7D8D614ABF4445C670B5A85A85465B Class:StaticMeshActor Name:StaticMeshActor_UAID_2CF05DA2235F310801_2083252232 SpatiallyLoaded:true Bounds:IsValid=true, Min=(X=1310.000 Y=2530.000 Z=0.000), Max=(X=1330.000 Y=2930.000 Z=400.500) RuntimeGrid:None EditorOnly:false LevelBoundsRelevant:true HLODRelevant:true FolderPath:None FolderGuid:00000000000000000000000000000000 Parent:00000000000000000000000000000000
   |      - Guid:32BB202446503BE6CBF53EB09E02092C Class:StaticMeshActor Name:StaticMeshActor_UAID_2CF05DA2235F330801_1769769593 SpatiallyLoaded:true Bounds:IsValid=true, Min=(X=4170.000 Y=1920.000 Z=-730.000), Max=(X=5870.000 Y=2020.000 Z=395.000) RuntimeGrid:None EditorOnly:false LevelBoundsRelevant:true HLODRelevant:true FolderPath:Playground FolderGuid:6C02BB504B69D1F3D7A624B130C18E5B Parent:00000000000000000000000000000000
   |      - Guid:3CC7948740090EE3CB6C8BB831B442AD Class:StaticMeshActor Name:StaticMeshActor_UAID_2CF05DA2235F330801_1191447588 SpatiallyLoaded:true Bounds:IsValid=true, Min=(X=1420.000 Y=2250.000 Z=0.000), Max=(X=2545.000 Y=2350.000 Z=400.000) RuntimeGrid:None EditorOnly:false LevelBoundsRelevant:true HLODRelevant:true FolderPath:Playground FolderGuid:6C02BB504B69D1F3D7A624B130C18E5B Parent:00000000000000000000000000000000
   |      - Guid:478607D44B037C735D11DAA2F46DFB24 Class:StaticMeshActor Name:StaticMeshActor_UAID_2CF05DA2235F330801_1769771596 SpatiallyLoaded:true Bounds:IsValid=true, Min=(X=5850.000 Y=1920.000 Z=-730.000), Max=(X=5950.000 Y=5470.000 Z=395.000) RuntimeGrid:None EditorOnly:false LevelBoundsRelevant:true HLODRelevant:true FolderPath:Playground FolderGuid:6C02BB504B69D1F3D7A624B130C18E5B Parent:00000000000000000000000000000000
   |      - Guid:503301344EDD2580C9B8269BA1FF0C83 Class:StaticMeshActor Name:StaticMeshActor_29 SpatiallyLoaded:true Bounds:IsValid=true, Min=(X=334.338 Y=334.338 Z=0.063), Max=(X=545.662 Y=545.662 Z=150.063) RuntimeGrid:None EditorOnly:false LevelBoundsRelevant:true HLODRelevant:false FolderPath:SimulatedCubes FolderGuid:9AEEADCB4DC6C647D6E7C0B4EDA1744F Parent:00000000000000000000000000000000
   |      - Guid:513828C9445F302505D74FB323325449 Class:StaticMeshActor Name:StaticMeshActor_UAID_2CF05DA2235F340801_1352447778 SpatiallyLoaded:true Bounds:IsValid=true, Min=(X=1068.459 Y=2158.459 Z=0.106), Max=(X=1191.540 Y=2281.541 Z=70.314) RuntimeGrid:None EditorOnly:false LevelBoundsRelevant:true HLODRelevant:true FolderPath:None FolderGuid:00000000000000000000000000000000 Parent:00000000000000000000000000000000
   |      - Guid:5F372068439DD236CB34F18F7E36DF98 Class:StaticMeshActor Name:StaticMeshActor_UAID_2CF05DA2235F330801_1769768592 SpatiallyLoaded:true Bounds:IsValid=true, Min=(X=4250.000 Y=5410.000 Z=-730.000), Max=(X=5950.000 Y=5510.000 Z=395.000) RuntimeGrid:None EditorOnly:false LevelBoundsRelevant:true HLODRelevant:true FolderPath:Playground FolderGuid:6C02BB504B69D1F3D7A624B130C18E5B Parent:00000000000000000000000000000000
   |      - Guid:5FE7584649BB6F09265329A6C57CFD0D Class:VolumetricCloud Name:VolumetricCloud_0 SpatiallyLoaded:false Bounds:IsValid=true, Min=(X=0.000 Y=0.000 Z=820.000), Max=(X=0.000 Y=0.000 Z=820.000) RuntimeGrid:None EditorOnly:false LevelBoundsRelevant:false HLODRelevant:false FolderPath:Lighting FolderGuid:0BA5F0A04EADB18E70D5B180D08FA34B Parent:00000000000000000000000000000000
   |      - Guid:61391D344900612A77DFC3BA3E354907 Class:ExponentialHeightFog Name:ExponentialHeightFog_0 SpatiallyLoaded:false Bounds:IsValid=true, Min=(X=-5600.000 Y=-50.000 Z=-6850.000), Max=(X=-5600.000 Y=-50.000 Z=-6850.000) RuntimeGrid:None EditorOnly:false LevelBoundsRelevant:false HLODRelevant:false FolderPath:Lighting FolderGuid:0BA5F0A04EADB18E70D5B180D08FA34B Parent:00000000000000000000000000000000
   |      - Guid:6FEFB3BD4EB37B849EF0D4AC80F83855 Class:WorldDataLayers Name:WorldDataLayers SpatiallyLoaded:false Bounds:IsValid=true, Min=(X=0.000 Y=0.000 Z=0.000), Max=(X=0.000 Y=0.000 Z=0.000) RuntimeGrid:None EditorOnly:false LevelBoundsRelevant:false HLODRelevant:false FolderPath:None FolderGuid:00000000000000000000000000000000 Parent:00000000000000000000000000000000
   |      - Guid:70BB11A544181BD4D5180D9AD80C6D7A Class:StaticMeshActor Name:StaticMeshActor_UAID_2CF05DA2235F340801_1291691776 SpatiallyLoaded:true Bounds:IsValid=true, Min=(X=4180.000 Y=2490.000 Z=-730.000), Max=(X=4280.000 Y=2890.000 Z=-30.000) RuntimeGrid:None EditorOnly:false LevelBoundsRelevant:true HLODRelevant:true FolderPath:Playground FolderGuid:6C02BB504B69D1F3D7A624B130C18E5B Parent:00000000000000000000000000000000
   |      - Guid:777EB4B34138AD353A182087FDD26DD4 Class:StaticMeshActor Name:StaticMeshActor_UAID_2CF05DA2235F340801_1308719777 SpatiallyLoaded:true Bounds:IsValid=true, Min=(X=4180.000 Y=4335.000 Z=-730.000), Max=(X=4280.000 Y=5510.000 Z=-30.000) RuntimeGrid:None EditorOnly:false LevelBoundsRelevant:true HLODRelevant:true FolderPath:Playground FolderGuid:6C02BB504B69D1F3D7A624B130C18E5B Parent:00000000000000000000000000000000
   |      - Guid:78907B824E304E162A9A02B9095F1FA1 Class:StaticMeshActor Name:StaticMeshActor_43 SpatiallyLoaded:true Bounds:IsValid=true, Min=(X=651.292 Y=399.199 Z=0.013), Max=(X=787.894 Y=535.801 Z=100.013) RuntimeGrid:None EditorOnly:false LevelBoundsRelevant:true HLODRelevant:false FolderPath:SimulatedCubes FolderGuid:9AEEADCB4DC6C647D6E7C0B4EDA1744F Parent:00000000000000000000000000000000
   |      - Guid:78CAF7514C7533F30BD2F19A017AAB65 Class:StaticMeshActor Name:StaticMeshActor_0 SpatiallyLoaded:true Bounds:IsValid=true, Min=(X=0.000 Y=2060.000 Z=-50.000), Max=(X=1400.000 Y=3485.000 Z=0.000) RuntimeGrid:None EditorOnly:false LevelBoundsRelevant:true HLODRelevant:true FolderPath:Playground FolderGuid:6C02BB504B69D1F3D7A624B130C18E5B Parent:00000000000000000000000000000000
   |      - Guid:8559D1384B14F466E8927697A36C1D78 Class:StaticMeshActor Name:StaticMeshActor_9 SpatiallyLoaded:true Bounds:IsValid=true, Min=(X=-0.000 Y=1970.000 Z=0.000), Max=(X=100.000 Y=3495.000 Z=400.000) RuntimeGrid:None EditorOnly:false LevelBoundsRelevant:true HLODRelevant:true FolderPath:Playground FolderGuid:6C02BB504B69D1F3D7A624B130C18E5B Parent:00000000000000000000000000000000
   |      - Guid:90B7B8D3420C2EABA931D3A6A69DF696 Class:StaticMeshActor Name:StaticMeshActor_3 SpatiallyLoaded:true Bounds:IsValid=true, Min=(X=0.000 Y=1970.000 Z=0.000), Max=(X=1400.000 Y=2070.000 Z=400.000) RuntimeGrid:None EditorOnly:false LevelBoundsRelevant:true HLODRelevant:true FolderPath:Playground FolderGuid:6C02BB504B69D1F3D7A624B130C18E5B Parent:00000000000000000000000000000000
   |      - Guid:A354B1B24E617A525DC6B48CCDE2417E Class:PlayerStart Name:PlayerStart_0 SpatiallyLoaded:false Bounds:IsValid=true, Min=(X=340.000 Y=2770.000 Z=0.013), Max=(X=420.000 Y=2850.000 Z=184.013) RuntimeGrid:None EditorOnly:false LevelBoundsRelevant:true HLODRelevant:false FolderPath:None FolderGuid:00000000000000000000000000000000 Parent:00000000000000000000000000000000
   |      - Guid:A50198874BF8F01C8B74E9A9CCEADD38 Class:StaticMeshActor Name:StaticMeshActor_UAID_2CF05DA2235F330801_1769771597 SpatiallyLoaded:true Bounds:IsValid=true, Min=(X=4180.000 Y=2015.000 Z=-730.000), Max=(X=4280.000 Y=2490.000 Z=395.000) RuntimeGrid:None EditorOnly:false LevelBoundsRelevant:true HLODRelevant:true FolderPath:Playground FolderGuid:6C02BB504B69D1F3D7A624B130C18E5B Parent:00000000000000000000000000000000
   |      - Guid:B0718D6846706384220C03973177EDC1 Class:StaticMeshActor Name:StaticMeshActor_44 SpatiallyLoaded:true Bounds:IsValid=true, Min=(X=599.330 Y=369.199 Z=100.013), Max=(X=735.933 Y=505.801 Z=200.013) RuntimeGrid:None EditorOnly:false LevelBoundsRelevant:true HLODRelevant:false FolderPath:SimulatedCubes FolderGuid:9AEEADCB4DC6C647D6E7C0B4EDA1744F Parent:00000000000000000000000000000000
   |      - Guid:BDD94C2F48BD7D93DE40E2902305A1DD Class:StaticMeshActor Name:StaticMeshActor_UAID_2CF05DA2235F310801_2048396231 SpatiallyLoaded:true Bounds:IsValid=true, Min=(X=1300.000 Y=2930.000 Z=0.000), Max=(X=1400.000 Y=3405.000 Z=400.000) RuntimeGrid:None EditorOnly:false LevelBoundsRelevant:true HLODRelevant:true FolderPath:Playground FolderGuid:6C02BB504B69D1F3D7A624B130C18E5B Parent:00000000000000000000000000000000
   |      - Guid:C0C56B9644AE3D40CAFF6A878DB29844 Class:StaticMeshActor Name:StaticMeshActor_UAID_A4AE111137DC5EFB00_2001720423 SpatiallyLoaded:true Bounds:IsValid=true, Min=(X=-1638400.000 Y=-1638400.000 Z=-1638400.000), Max=(X=1638400.000 Y=1638400.000 Z=1638400.000) RuntimeGrid:None EditorOnly:false LevelBoundsRelevant:true HLODRelevant:true FolderPath:Lighting FolderGuid:0BA5F0A04EADB18E70D5B180D08FA34B Parent:00000000000000000000000000000000
   |      - Guid:C22CE07C4B87D685137FDBBC10FC92C6 Class:SkyAtmosphere Name:SkyAtmosphere_0 SpatiallyLoaded:false Bounds:IsValid=true, Min=(X=0.000 Y=0.000 Z=1020.000), Max=(X=0.000 Y=0.000 Z=1020.000) RuntimeGrid:None EditorOnly:false LevelBoundsRelevant:false HLODRelevant:false FolderPath:Lighting FolderGuid:0BA5F0A04EADB18E70D5B180D08FA34B Parent:00000000000000000000000000000000
   |      - Guid:CE8D82634660FCDB3120E2B8D547C533 Class:PostProcessVolume Name:PostProcessVolume_0 SpatiallyLoaded:false Bounds:IsValid=true, Min=(X=0.000 Y=0.000 Z=400.000), Max=(X=200.000 Y=200.000 Z=600.000) RuntimeGrid:None EditorOnly:false LevelBoundsRelevant:false HLODRelevant:false FolderPath:Lighting FolderGuid:0BA5F0A04EADB18E70D5B180D08FA34B Parent:00000000000000000000000000000000
   |      - Guid:CFFF5E384BFFD1BFC9F6CB80323C2027 Class:StaticMeshActor Name:StaticMeshActor_UAID_2CF05DA2235F330801_2129011599 SpatiallyLoaded:true Bounds:IsValid=true, Min=(X=4215.000 Y=2435.000 Z=-50.000), Max=(X=4640.000 Y=3010.000 Z=0.000) RuntimeGrid:None EditorOnly:false LevelBoundsRelevant:true HLODRelevant:true FolderPath:Playground FolderGuid:6C02BB504B69D1F3D7A624B130C18E5B Parent:00000000000000000000000000000000
   |      - Guid:D75972C442ECE7C70459D9AB3D502AFC Class:StaticMeshActor Name:StaticMeshActor_UAID_2CF05DA2235F330801_1769771598 SpatiallyLoaded:true Bounds:IsValid=true, Min=(X=4180.000 Y=2490.000 Z=0.000), Max=(X=4200.000 Y=2890.000 Z=400.500) RuntimeGrid:None EditorOnly:false LevelBoundsRelevant:true HLODRelevant:true FolderPath:None FolderGuid:00000000000000000000000000000000 Parent:00000000000000000000000000000000
   |      - Guid:DD7F4312488E5BFA965DAFBE09228F54 Class:StaticMeshActor Name:StaticMeshActor_UAID_2CF05DA2235F330801_1243522591 SpatiallyLoaded:true Bounds:IsValid=true, Min=(X=3050.000 Y=2240.000 Z=0.000), Max=(X=4175.000 Y=2340.000 Z=400.000) RuntimeGrid:None EditorOnly:false LevelBoundsRelevant:true HLODRelevant:true FolderPath:Playground FolderGuid:6C02BB504B69D1F3D7A624B130C18E5B Parent:00000000000000000000000000000000
   |      - Guid:E5320C1B4FD9764CE7B54D8487AEC613 Class:SkyLight Name:SkyLight_0 SpatiallyLoaded:false Bounds:IsValid=true, Min=(X=0.000 Y=0.000 Z=690.000), Max=(X=0.000 Y=0.000 Z=690.000) RuntimeGrid:None EditorOnly:false LevelBoundsRelevant:false HLODRelevant:false FolderPath:Lighting FolderGuid:0BA5F0A04EADB18E70D5B180D08FA34B Parent:00000000000000000000000000000000
   |      - Guid:EE66F4454A4A9F99393F559AB739C05E Class:Actor Name:BP_Rifle_C_1 SpatiallyLoaded:true Bounds:IsValid=true, Min=(X=2238.000 Y=2638.000 Z=74.000), Max=(X=2302.000 Y=2727.440 Z=138.000) RuntimeGrid:None EditorOnly:false LevelBoundsRelevant:true HLODRelevant:false FolderPath:None FolderGuid:00000000000000000000000000000000 Parent:00000000000000000000000000000000
   |      - Guid:F07F1AF64C7C7C238EE1B4BF8C122DD8 Class:StaticMeshActor Name:StaticMeshActor_4 SpatiallyLoaded:true Bounds:IsValid=true, Min=(X=0.000 Y=3400.000 Z=0.000), Max=(X=1400.000 Y=3500.000 Z=400.000) RuntimeGrid:None EditorOnly:false LevelBoundsRelevant:true HLODRelevant:true FolderPath:Playground FolderGuid:6C02BB504B69D1F3D7A624B130C18E5B Parent:00000000000000000000000000000000
   |      - Guid:F0C6F03643197DF1F8E055A0187F0DEB Class:StaticMeshActor Name:StaticMeshActor_UAID_2CF05DA2235F340801_1356039779 SpatiallyLoaded:true Bounds:IsValid=true, Min=(X=918.056 Y=2124.649 Z=-10.451), Max=(X=1000.212 Y=2240.000 Z=70.451) RuntimeGrid:None EditorOnly:false LevelBoundsRelevant:true HLODRelevant:false FolderPath:None FolderGuid:00000000000000000000000000000000 Parent:00000000000000000000000000000000
   |      - Guid:F80621C9446867154938FE81375207DA Class:DirectionalLight Name:DirectionalLight_1 SpatiallyLoaded:false Bounds:IsValid=true, Min=(X=-1048576.000 Y=-1048576.000 Z=-1048576.000), Max=(X=1048576.000 Y=1048576.000 Z=1048576.000) RuntimeGrid:None EditorOnly:false LevelBoundsRelevant:false HLODRelevant:false FolderPath:Lighting FolderGuid:0BA5F0A04EADB18E70D5B180D08FA34B Parent:00000000000000000000000000000000
   |      - Guid:FE369CF94A071F9176E524A237CA92AA Class:StaticMeshActor Name:StaticMeshActor_1 SpatiallyLoaded:true Bounds:IsValid=true, Min=(X=551.699 Y=341.699 Z=0.013), Max=(X=688.301 Y=478.301 Z=100.013) RuntimeGrid:None EditorOnly:false LevelBoundsRelevant:true HLODRelevant:false FolderPath:SimulatedCubes FolderGuid:9AEEADCB4DC6C647D6E7C0B4EDA1744F Parent:00000000000000000000000000000000
