Containers:
  [+] MainContainer:
   |            ID: 0x0000000000000000
   |        Bounds: IsValid=false, Min=(X=0.000 Y=0.000 Z=0.000), Max=(X=0.000 Y=0.000 Z=0.000)
   |     Transform: 0.000000,0.000000,0.000000|0.000000,0.000000,-0.000000|1.000000,1.000000,1.000000
   |     Container: /Game/FirstPerson/Maps/FirstPersonMap
   |  ActorDescs:
   |      - Guid:0341777343C1A4AAA8C5DFB151A3BF20 Class:Actor Name:SimpleWall_C_UAID_842AFD18ADD1EC0801_1525748157 SpatiallyLoaded:true Bounds:IsValid=true, Min=(X=1865.000 Y=62.778 Z=-22.500), Max=(X=1965.000 Y=662.778 Z=402.500) RuntimeGrid:None EditorOnly:false LevelBoundsRelevant:true HLODRelevant:false FolderPath:None FolderGuid:00000000000000000000000000000000 Parent:00000000000000000000000000000000
   |      - Guid:034BF3D74340A40B4F6DA39115102BF8 Class:Actor Name:SimpleWall_C_UAID_842AFD18ADD1EE0801_1312630538 SpatiallyLoaded:true Bounds:IsValid=true, Min=(X=-200.000 Y=-1530.000 Z=-22.500), Max=(X=350.000 Y=-1430.000 Z=402.500) RuntimeGrid:None EditorOnly:false LevelBoundsRelevant:true HLODRelevant:false FolderPath:None FolderGuid:00000000000000000000000000000000 Parent:00000000000000000000000000000000
   |      - Guid:05AE088A42A41BD79662CDBEF35B4B5C Class:Actor Name:SimpleWall_C_UAID_842AFD18ADD1EC0801_1757790164 SpatiallyLoaded:true Bounds:IsValid=true, Min=(X=1415.000 Y=62.778 Z=-445.000), Max=(X=1515.000 Y=662.778 Z=405.000) RuntimeGrid:None EditorOnly:false LevelBoundsRelevant:true HLODRelevant:false FolderPath:None FolderGuid:00000000000000000000000000000000 Parent:00000000000000000000000000000000
   |      - Guid:0646336740033E0969B978B23966EA66 Class:Actor Name:SimpleWall_C_UAID_842AFD18ADD1CE0801_1689556879 SpatiallyLoaded:true Bounds:IsValid=true, Min=(X=3602.500 Y=8325.000 Z=-445.000), Max=(X=4627.500 Y=9075.000 Z=5.000) RuntimeGrid:None EditorOnly:false LevelBoundsRelevant:true HLODRelevant:false FolderPath:None FolderGuid:00000000000000000000000000000000 Parent:00000000000000000000000000000000
   |      - Guid:091CEFD4481186BE63E51B8D54D65C5B Class:Actor Name:SimpleWall_C_UAID_842AFD18ADD1EC0801_1656302160 SpatiallyLoaded:true Bounds:IsValid=true, Min=(X=1515.000 Y=60.000 Z=-22.500), Max=(X=1865.000 Y=160.000 Z=402.500) RuntimeGrid:None EditorOnly:false LevelBoundsRelevant:true HLODRelevant:false FolderPath:None FolderGuid:00000000000000000000000000000000 Parent:00000000000000000000000000000000
   |      - Guid:0946E1D848180167D8F0AE87E3D2B214 Class:Actor Name:SimpleWall_C_UAID_842AFD18ADD1EC0801_1917822168 SpatiallyLoaded:true Bounds:IsValid=true, Min=(X=651.250 Y=-1085.000 Z=-445.000), Max=(X=1538.750 Y=-985.000 Z=405.000) RuntimeGrid:None EditorOnly:false LevelBoundsRelevant:true HLODRelevant:false FolderPath:None FolderGuid:00000000000000000000000000000000 Parent:00000000000000000000000000000000
   |      - Guid:0AF53FAF489BB5B81F409EAD511D2B58 Class:Actor Name:SimpleWall_C_UAID_842AFD18ADD1EF0801_1416294740 SpatiallyLoaded:true Bounds:IsValid=true, Min=(X=-4467.500 Y=-4463.750 Z=-100.000), Max=(X=-3192.500 Y=-3976.250 Z=0.000) RuntimeGrid:None EditorOnly:false LevelBoundsRelevant:true HLODRelevant:false FolderPath:None FolderGuid:00000000000000000000000000000000 Parent:00000000000000000000000000000000
   |      - Guid:0DA9ACA44286CD2E5DA6C5A6B386D8C0 Class:Actor Name:SimpleWall_C_UAID_842AFD18ADD1EE0801_2014731555 SpatiallyLoaded:true Bounds:IsValid=true, Min=(X=-3200.000 Y=-6077.500 Z=-450.000), Max=(X=-3100.000 Y=-4452.500 Z=400.000) RuntimeGrid:None EditorOnly:false LevelBoundsRelevant:true HLODRelevant:false FolderPath:None FolderGuid:00000000000000000000000000000000 Parent:00000000000000000000000000000000
   |      - Guid:0EC409BC4C32AC5ADA911EBE6A559687 Class:StaticMeshActor Name:StaticMeshActor_UAID_2CF05DA2235F330801_1240703590 SpatiallyLoaded:true Bounds:IsValid=true, Min=(X=3050.000 Y=3050.000 Z=0.000), Max=(X=4175.000 Y=3150.000 Z=400.000) RuntimeGrid:None EditorOnly:false LevelBoundsRelevant:true HLODRelevant:true FolderPath:Playground FolderGuid:6C02BB504B69D1F3D7A624B130C18E5B Parent:00000000000000000000000000000000
   |      - Guid:0EDB289B45CB7E0977A6DBA74201EE76 Class:StaticMeshActor Name:StaticMeshActor_10 SpatiallyLoaded:true Bounds:IsValid=true, Min=(X=1300.000 Y=2060.000 Z=0.000), Max=(X=1400.000 Y=2535.000 Z=400.000) RuntimeGrid:None EditorOnly:false LevelBoundsRelevant:true HLODRelevant:true FolderPath:Playground FolderGuid:6C02BB504B69D1F3D7A624B130C18E5B Parent:00000000000000000000000000000000
   |      - Guid:12632AEB43502262E35EC4BB68B816D4 Class:Actor Name:Water_C_UAID_842AFD18ADD13E0A01_1922898631 SpatiallyLoaded:true Bounds:IsValid=true, Min=(X=1914.000 Y=5187.500 Z=-431.500), Max=(X=3786.000 Y=9152.500 Z=-158.500) RuntimeGrid:None EditorOnly:false LevelBoundsRelevant:true HLODRelevant:false FolderPath:Water FolderGuid:6D651D09482980AB89881FB934893354 Parent:00000000000000000000000000000000
   |      - Guid:12871B934CF4D342037B66B97BFD7D39 Class:Actor Name:SimpleWall_C_UAID_842AFD18ADD1EF0801_1499636743 SpatiallyLoaded:true Bounds:IsValid=true, Min=(X=-6526.250 Y=-5743.750 Z=-100.000), Max=(X=-4463.750 Y=-3556.250 Z=0.000) RuntimeGrid:None EditorOnly:false LevelBoundsRelevant:true HLODRelevant:false FolderPath:None FolderGuid:00000000000000000000000000000000 Parent:00000000000000000000000000000000
   |      - Guid:160C676741617CA169EC0390D2285DBE Class:Actor Name:SimpleWall_C_UAID_842AFD18ADD1EC0801_2023022169 SpatiallyLoaded:true Bounds:IsValid=true, Min=(X=-1502.500 Y=655.000 Z=-445.000), Max=(X=1522.500 Y=755.000 Z=405.000) RuntimeGrid:None EditorOnly:false LevelBoundsRelevant:true HLODRelevant:false FolderPath:None FolderGuid:00000000000000000000000000000000 Parent:00000000000000000000000000000000
   |      - Guid:168FCF2840CC576626A90D8C64F522E7 Class:StaticMeshActor Name:StaticMeshActor_UAID_2CF05DA2235F330801_1165918587 SpatiallyLoaded:true Bounds:IsValid=true, Min=(X=1320.000 Y=2330.000 Z=-50.000), Max=(X=4220.000 Y=3130.000 Z=0.000) RuntimeGrid:None EditorOnly:false LevelBoundsRelevant:true HLODRelevant:true FolderPath:Playground FolderGuid:6C02BB504B69D1F3D7A624B130C18E5B Parent:00000000000000000000000000000000
   |      - Guid:1AFBED9B4909725A829AD4BF301C8AB0 Class:Actor Name:Switch_C_UAID_2CF05DA2235FD00A01_1750240328 SpatiallyLoaded:true Bounds:IsValid=true, Min=(X=3800.000 Y=2930.000 Z=-10.000), Max=(X=3900.000 Y=3030.000 Z=190.000) RuntimeGrid:None EditorOnly:false LevelBoundsRelevant:true HLODRelevant:false FolderPath:None FolderGuid:00000000000000000000000000000000 Parent:00000000000000000000000000000000
   |      - Guid:1D4D398B4ADD537F43D302870C5E0308 Class:Actor Name:SimpleWall_C_UAID_842AFD18ADD1EF0801_1474627742 SpatiallyLoaded:true Bounds:IsValid=true, Min=(X=-4466.250 Y=-3980.000 Z=-27.500), Max=(X=-3103.750 Y=-3880.000 Z=397.500) RuntimeGrid:None EditorOnly:false LevelBoundsRelevant:true HLODRelevant:false FolderPath:None FolderGuid:00000000000000000000000000000000 Parent:00000000000000000000000000000000
   |      - Guid:1E15D0C7433E995D0E046FBEE27F3436 Class:Actor Name:SimpleWall_C_UAID_842AFD18ADD1ED0801_1566080350 SpatiallyLoaded:true Bounds:IsValid=true, Min=(X=-202.500 Y=-3030.000 Z=-100.000), Max=(X=3722.500 Y=-1430.000 Z=0.000) RuntimeGrid:None EditorOnly:false LevelBoundsRelevant:true HLODRelevant:false FolderPath:None FolderGuid:00000000000000000000000000000000 Parent:00000000000000000000000000000000
   |      - Guid:1E4F7DA940CBCC8380A24F8E333B109B Class:StaticMeshActor Name:StaticMeshActor_UAID_2CF05DA2235F330801_1769770595 SpatiallyLoaded:true Bounds:IsValid=true, Min=(X=4180.000 Y=2885.000 Z=-730.000), Max=(X=4280.000 Y=4360.000 Z=395.000) RuntimeGrid:None EditorOnly:false LevelBoundsRelevant:true HLODRelevant:true FolderPath:Playground FolderGuid:6C02BB504B69D1F3D7A624B130C18E5B Parent:00000000000000000000000000000000
   |      - Guid:203AC65C435891304099BD83EC06786D Class:StaticMeshActor Name:StaticMeshActor_UAID_2CF05DA2235F330801_1769770594 SpatiallyLoaded:true Bounds:IsValid=true, Min=(X=4220.000 Y=1920.000 Z=-770.000), Max=(X=5970.000 Y=5470.000 Z=-720.000) RuntimeGrid:None EditorOnly:false LevelBoundsRelevant:true HLODRelevant:true FolderPath:Playground FolderGuid:6C02BB504B69D1F3D7A624B130C18E5B Parent:00000000000000000000000000000000
   |      - Guid:21262252453B37957EF29F82ABA2413B Class:TextRenderActor Name:TextRenderActor_1 SpatiallyLoaded:true Bounds:IsValid=true, Min=(X=-0.100 Y=1100.000 Z=65.013), Max=(X=-0.100 Y=2363.461 Z=215.013) RuntimeGrid:None EditorOnly:false LevelBoundsRelevant:true HLODRelevant:false FolderPath:None FolderGuid:00000000000000000000000000000000 Parent:00000000000000000000000000000000
   |      - Guid:2595EAE2470B4D6DB35853B757652F56 Class:Actor Name:SimpleWall_C_UAID_842AFD18ADD1EE0801_1433999542 SpatiallyLoaded:true Bounds:IsValid=true, Min=(X=-1755.000 Y=-715.000 Z=-22.500), Max=(X=-1405.000 Y=-615.000 Z=402.500) RuntimeGrid:None EditorOnly:false LevelBoundsRelevant:true HLODRelevant:false FolderPath:None FolderGuid:00000000000000000000000000000000 Parent:00000000000000000000000000000000
   |      - Guid:273C4CD94120DF29735C29862EE47B34 Class:StaticMeshActor Name:StaticMeshActor_UAID_2CF05DA2235F330801_1237006589 SpatiallyLoaded:true Bounds:IsValid=true, Min=(X=1420.000 Y=3050.000 Z=0.000), Max=(X=2545.000 Y=3150.000 Z=400.000) RuntimeGrid:None EditorOnly:false LevelBoundsRelevant:true HLODRelevant:true FolderPath:Playground FolderGuid:6C02BB504B69D1F3D7A624B130C18E5B Parent:00000000000000000000000000000000
   |      - Guid:2AC061D94F975CEE23C8438ACA32B7F1 Class:Actor Name:SimpleWall_C_UAID_842AFD18ADD1EC0801_1747641163 SpatiallyLoaded:true Bounds:IsValid=true, Min=(X=1865.000 Y=-995.000 Z=-22.500), Max=(X=1965.000 Y=-395.000 Z=402.500) RuntimeGrid:None EditorOnly:false LevelBoundsRelevant:true HLODRelevant:false FolderPath:None FolderGuid:00000000000000000000000000000000 Parent:00000000000000000000000000000000
   |      - Guid:2AF7BA6A4C79E58FD538D1B48430D12E Class:Actor Name:SimpleWall_C_UAID_842AFD18ADD1EF0801_1145367735 SpatiallyLoaded:true Bounds:IsValid=true, Min=(X=-3485.000 Y=-673.472 Z=-17.500), Max=(X=-3385.000 Y=-60.972 Z=407.500) RuntimeGrid:None EditorOnly:false LevelBoundsRelevant:true HLODRelevant:false FolderPath:None FolderGuid:00000000000000000000000000000000 Parent:00000000000000000000000000000000
   |      - Guid:2B7D8D614ABF4445C670B5A85A85465B Class:StaticMeshActor Name:StaticMeshActor_UAID_2CF05DA2235F310801_2083252232 SpatiallyLoaded:true Bounds:IsValid=true, Min=(X=1310.000 Y=2530.000 Z=0.000), Max=(X=1330.000 Y=2930.000 Z=400.500) RuntimeGrid:None EditorOnly:false LevelBoundsRelevant:true HLODRelevant:true FolderPath:None FolderGuid:00000000000000000000000000000000 Parent:00000000000000000000000000000000
   |      - Guid:2C4D8BF34EFE68E6CC0AA791566EE0D1 Class:Actor Name:SimpleWall_C_UAID_842AFD18ADD1CB0801_1767290337 SpatiallyLoaded:true Bounds:IsValid=true, Min=(X=3050.000 Y=3147.500 Z=-100.000), Max=(X=3150.000 Y=5222.500 Z=400.000) RuntimeGrid:None EditorOnly:false LevelBoundsRelevant:true HLODRelevant:false FolderPath:None FolderGuid:00000000000000000000000000000000 Parent:00000000000000000000000000000000
   |      - Guid:2D8C82F04C272850E58373ABC6B45631 Class:Actor Name:SimpleWall_C_UAID_842AFD18ADD1ED0801_2072298353 SpatiallyLoaded:true Bounds:IsValid=true, Min=(X=2537.500 Y=-1431.154 Z=-100.000), Max=(X=3062.500 Y=-1081.154 Z=0.000) RuntimeGrid:None EditorOnly:false LevelBoundsRelevant:true HLODRelevant:false FolderPath:None FolderGuid:00000000000000000000000000000000 Parent:00000000000000000000000000000000
   |      - Guid:2E0941A444175860EA03C4BFB08902F1 Class:Actor Name:SimpleWall_C_UAID_842AFD18ADD1ED0801_2048512352 SpatiallyLoaded:true Bounds:IsValid=true, Min=(X=3050.000 Y=-1430.000 Z=-100.000), Max=(X=3150.000 Y=-1080.000 Z=400.000) RuntimeGrid:None EditorOnly:false LevelBoundsRelevant:true HLODRelevant:false FolderPath:None FolderGuid:00000000000000000000000000000000 Parent:00000000000000000000000000000000
   |      - Guid:32BB202446503BE6CBF53EB09E02092C Class:StaticMeshActor Name:StaticMeshActor_UAID_2CF05DA2235F330801_1769769593 SpatiallyLoaded:true Bounds:IsValid=true, Min=(X=4170.000 Y=1920.000 Z=-730.000), Max=(X=5870.000 Y=2020.000 Z=395.000) RuntimeGrid:None EditorOnly:false LevelBoundsRelevant:true HLODRelevant:true FolderPath:Playground FolderGuid:6C02BB504B69D1F3D7A624B130C18E5B Parent:00000000000000000000000000000000
   |      - Guid:336654F94152C23E8FE6A0BC1DF274C7 Class:Actor Name:SimpleWall_C_UAID_842AFD18ADD1EC0801_1827598167 SpatiallyLoaded:true Bounds:IsValid=true, Min=(X=-1472.500 Y=-1085.000 Z=-445.000), Max=(X=352.500 Y=-985.000 Z=405.000) RuntimeGrid:None EditorOnly:false LevelBoundsRelevant:true HLODRelevant:false FolderPath:None FolderGuid:00000000000000000000000000000000 Parent:00000000000000000000000000000000
   |      - Guid:34A2B1674206F9FA57EF5AA487E1AB97 Class:Actor Name:SimpleWall_C_UAID_842AFD18ADD1EE0801_2050444556 SpatiallyLoaded:true Bounds:IsValid=true, Min=(X=3630.000 Y=-2930.000 Z=-22.500), Max=(X=3730.000 Y=-1530.000 Z=402.500) RuntimeGrid:None EditorOnly:false LevelBoundsRelevant:true HLODRelevant:false FolderPath:None FolderGuid:00000000000000000000000000000000 Parent:00000000000000000000000000000000
   |      - Guid:361947744B03DE5D58B4DE9CB510A5F7 Class:Actor Name:SimpleWall_C_UAID_842AFD18ADD1CB0801_2087765341 SpatiallyLoaded:true Bounds:IsValid=true, Min=(X=3625.000 Y=5222.500 Z=-422.500), Max=(X=3725.000 Y=8347.500 Z=402.500) RuntimeGrid:None EditorOnly:false LevelBoundsRelevant:true HLODRelevant:false FolderPath:None FolderGuid:00000000000000000000000000000000 Parent:00000000000000000000000000000000
   |      - Guid:3BA78A7A4B34001A1C349993FDA785AA Class:Actor Name:SimpleWall_C_UAID_842AFD18ADD1EB0801_2001245968 SpatiallyLoaded:true Bounds:IsValid=true, Min=(X=2537.500 Y=761.346 Z=-100.000), Max=(X=3062.500 Y=2336.346 Z=0.000) RuntimeGrid:None EditorOnly:false LevelBoundsRelevant:true HLODRelevant:false FolderPath:None FolderGuid:00000000000000000000000000000000 Parent:00000000000000000000000000000000
   |      - Guid:3CC7948740090EE3CB6C8BB831B442AD Class:StaticMeshActor Name:StaticMeshActor_UAID_2CF05DA2235F330801_1191447588 SpatiallyLoaded:true Bounds:IsValid=true, Min=(X=1420.000 Y=2250.000 Z=0.000), Max=(X=2545.000 Y=2350.000 Z=400.000) RuntimeGrid:None EditorOnly:false LevelBoundsRelevant:true HLODRelevant:true FolderPath:Playground FolderGuid:6C02BB504B69D1F3D7A624B130C18E5B Parent:00000000000000000000000000000000
   |      - Guid:3D51115C491FDC11FD6BADBF9036AB67 Class:Actor Name:SimpleWall_C_UAID_842AFD18ADD1CE0801_2131280882 SpatiallyLoaded:true Bounds:IsValid=true, Min=(X=4150.000 Y=5980.000 Z=-422.500), Max=(X=5950.000 Y=6080.000 Z=402.500) RuntimeGrid:None EditorOnly:false LevelBoundsRelevant:true HLODRelevant:false FolderPath:None FolderGuid:00000000000000000000000000000000 Parent:00000000000000000000000000000000
   |      - Guid:4107546B450718514873808BE484792D Class:Actor Name:SimpleWall_C_UAID_842AFD18ADD1EE0801_1091905533 SpatiallyLoaded:true Bounds:IsValid=true, Min=(X=3630.000 Y=-6091.250 Z=-450.000), Max=(X=3730.000 Y=-3328.750 Z=400.000) RuntimeGrid:None EditorOnly:false LevelBoundsRelevant:true HLODRelevant:false FolderPath:None FolderGuid:00000000000000000000000000000000 Parent:00000000000000000000000000000000
   |      - Guid:478607D44B037C735D11DAA2F46DFB24 Class:StaticMeshActor Name:StaticMeshActor_UAID_2CF05DA2235F330801_1769771596 SpatiallyLoaded:true Bounds:IsValid=true, Min=(X=5850.000 Y=1920.000 Z=-730.000), Max=(X=5950.000 Y=5470.000 Z=395.000) RuntimeGrid:None EditorOnly:false LevelBoundsRelevant:true HLODRelevant:true FolderPath:Playground FolderGuid:6C02BB504B69D1F3D7A624B130C18E5B Parent:00000000000000000000000000000000
   |      - Guid:4F5585B14267A8C8FC450A9B5EEC0B54 Class:Actor Name:SimpleWall_C_UAID_842AFD18ADD1EE0801_1074179531 SpatiallyLoaded:true Bounds:IsValid=true, Min=(X=3052.500 Y=-1530.000 Z=-22.500), Max=(X=3727.500 Y=-1430.000 Z=402.500) RuntimeGrid:None EditorOnly:false LevelBoundsRelevant:true HLODRelevant:false FolderPath:None FolderGuid:00000000000000000000000000000000 Parent:00000000000000000000000000000000
   |      - Guid:503301344EDD2580C9B8269BA1FF0C83 Class:StaticMeshActor Name:StaticMeshActor_29 SpatiallyLoaded:true Bounds:IsValid=true, Min=(X=334.338 Y=334.338 Z=0.063), Max=(X=545.662 Y=545.662 Z=150.063) RuntimeGrid:None EditorOnly:false LevelBoundsRelevant:true HLODRelevant:false FolderPath:SimulatedCubes FolderGuid:9AEEADCB4DC6C647D6E7C0B4EDA1744F Parent:00000000000000000000000000000000
   |      - Guid:50A33A164A374494A553AA8DD85BAF52 Class:Actor Name:SimpleWall_C_UAID_842AFD18ADD1CD0801_1538744696 SpatiallyLoaded:true Bounds:IsValid=true, Min=(X=1967.500 Y=9045.000 Z=-422.500), Max=(X=3692.500 Y=9145.000 Z=402.500) RuntimeGrid:None EditorOnly:false LevelBoundsRelevant:true HLODRelevant:false FolderPath:None FolderGuid:00000000000000000000000000000000 Parent:00000000000000000000000000000000
   |      - Guid:513828C9445F302505D74FB323325449 Class:StaticMeshActor Name:StaticMeshActor_UAID_2CF05DA2235F340801_1352447778 SpatiallyLoaded:true Bounds:IsValid=true, Min=(X=1068.459 Y=2158.459 Z=0.106), Max=(X=1191.540 Y=2281.541 Z=70.314) RuntimeGrid:None EditorOnly:false LevelBoundsRelevant:true HLODRelevant:true FolderPath:None FolderGuid:00000000000000000000000000000000 Parent:00000000000000000000000000000000
   |      - Guid:51C8211D4E36976B7B07158F143E6FF3 Class:Actor Name:SimpleWall_C_UAID_842AFD18ADD1CF0801_1126023060 SpatiallyLoaded:true Bounds:IsValid=true, Min=(X=4875.000 Y=6057.500 Z=-445.000), Max=(X=5325.000 Y=6432.500 Z=5.000) RuntimeGrid:None EditorOnly:false LevelBoundsRelevant:true HLODRelevant:false FolderPath:None FolderGuid:00000000000000000000000000000000 Parent:00000000000000000000000000000000
   |      - Guid:52C040134ABD128D2B730AB24C871C58 Class:Actor Name:SimpleWall_C_UAID_842AFD18ADD1EE0801_1977718554 SpatiallyLoaded:true Bounds:IsValid=true, Min=(X=-3122.500 Y=-6080.000 Z=-450.000), Max=(X=3702.500 Y=-5980.000 Z=400.000) RuntimeGrid:None EditorOnly:false LevelBoundsRelevant:true HLODRelevant:false FolderPath:None FolderGuid:00000000000000000000000000000000 Parent:00000000000000000000000000000000
   |      - Guid:56CE2B534D2C8A8A8188D69254B65E7A Class:Actor Name:SimpleWall_C_UAID_842AFD18ADD1ED0801_1300637348 SpatiallyLoaded:true Bounds:IsValid=true, Min=(X=-462.500 Y=-702.500 Z=-472.500), Max=(X=-137.500 Y=372.500 Z=2.500) RuntimeGrid:None EditorOnly:false LevelBoundsRelevant:true HLODRelevant:false FolderPath:None FolderGuid:00000000000000000000000000000000 Parent:00000000000000000000000000000000
   |      - Guid:58BC2F274F4F7562ECA50AA70ABCF9D7 Class:Actor Name:SimpleWall_C_UAID_842AFD18ADD1ED0801_1077359347 SpatiallyLoaded:true Bounds:IsValid=true, Min=(X=355.000 Y=-1085.000 Z=-472.500), Max=(X=1105.000 Y=-735.000 Z=2.500) RuntimeGrid:None EditorOnly:false LevelBoundsRelevant:true HLODRelevant:false FolderPath:None FolderGuid:00000000000000000000000000000000 Parent:00000000000000000000000000000000
   |      - Guid:5CB11E584D2FAC04860786BB9A0BE0FA Class:Actor Name:Destructible_C_UAID_2CF05DA2235FD60801_1735058271 SpatiallyLoaded:true Bounds:IsValid=true, Min=(X=843.360 Y=2438.960 Z=0.000), Max=(X=956.640 Y=2541.040 Z=100.000) RuntimeGrid:None EditorOnly:false LevelBoundsRelevant:true HLODRelevant:false FolderPath:None FolderGuid:00000000000000000000000000000000 Parent:00000000000000000000000000000000
   |      - Guid:5D2233DC4A2FBEC8F86EDB96E8160395 Class:Actor Name:SimpleWall_C_UAID_842AFD18ADD1EF0801_1278836738 SpatiallyLoaded:true Bounds:IsValid=true, Min=(X=-3208.750 Y=-5206.250 Z=-500.000), Max=(X=278.750 Y=-3393.750 Z=0.000) RuntimeGrid:None EditorOnly:false LevelBoundsRelevant:true HLODRelevant:false FolderPath:None FolderGuid:00000000000000000000000000000000 Parent:00000000000000000000000000000000
   |      - Guid:5F372068439DD236CB34F18F7E36DF98 Class:StaticMeshActor Name:StaticMeshActor_UAID_2CF05DA2235F330801_1769768592 SpatiallyLoaded:true Bounds:IsValid=true, Min=(X=4250.000 Y=5410.000 Z=-730.000), Max=(X=5950.000 Y=5510.000 Z=395.000) RuntimeGrid:None EditorOnly:false LevelBoundsRelevant:true HLODRelevant:true FolderPath:Playground FolderGuid:6C02BB504B69D1F3D7A624B130C18E5B Parent:00000000000000000000000000000000
   |      - Guid:5FE7584649BB6F09265329A6C57CFD0D Class:VolumetricCloud Name:VolumetricCloud_0 SpatiallyLoaded:false Bounds:IsValid=true, Min=(X=0.000 Y=0.000 Z=820.000), Max=(X=0.000 Y=0.000 Z=820.000) RuntimeGrid:None EditorOnly:false LevelBoundsRelevant:false HLODRelevant:false FolderPath:Lighting FolderGuid:0BA5F0A04EADB18E70D5B180D08FA34B Parent:00000000000000000000000000000000
   |      - Guid:61391D344900612A77DFC3BA3E354907 Class:ExponentialHeightFog Name:ExponentialHeightFog_0 SpatiallyLoaded:false Bounds:IsValid=true, Min=(X=-5600.000 Y=-50.000 Z=-6850.000), Max=(X=-5600.000 Y=-50.000 Z=-6850.000) RuntimeGrid:None EditorOnly:false LevelBoundsRelevant:false HLODRelevant:false FolderPath:Lighting FolderGuid:0BA5F0A04EADB18E70D5B180D08FA34B Parent:00000000000000000000000000000000
   |      - Guid:62E7BEB94DCE692E038CE282AD48F260 Class:Actor Name:SimpleWall_C_UAID_842AFD18ADD1CE0801_1639895878 SpatiallyLoaded:true Bounds:IsValid=true, Min=(X=3705.000 Y=8250.000 Z=-422.500), Max=(X=4055.000 Y=8350.000 Z=402.500) RuntimeGrid:None EditorOnly:false LevelBoundsRelevant:true HLODRelevant:false FolderPath:None FolderGuid:00000000000000000000000000000000 Parent:00000000000000000000000000000000
   |      - Guid:64072B4240CDAF055E3153B5B9E21A96 Class:Actor Name:SimpleWall_C_UAID_842AFD18ADD1EE0801_1179296536 SpatiallyLoaded:true Bounds:IsValid=true, Min=(X=650.000 Y=-1430.000 Z=-100.000), Max=(X=750.000 Y=-1080.000 Z=400.000) RuntimeGrid:None EditorOnly:false LevelBoundsRelevant:true HLODRelevant:false FolderPath:None FolderGuid:00000000000000000000000000000000 Parent:00000000000000000000000000000000
   |      - Guid:6B4561324E703D2B022D32935E8D9E27 Class:Actor Name:SimpleWall_C_UAID_842AFD18ADD1CF0801_1107566059 SpatiallyLoaded:true Bounds:IsValid=true, Min=(X=5605.000 Y=8727.500 Z=-445.000), Max=(X=5955.000 Y=9102.500 Z=5.000) RuntimeGrid:None EditorOnly:false LevelBoundsRelevant:true HLODRelevant:false FolderPath:None FolderGuid:00000000000000000000000000000000 Parent:00000000000000000000000000000000
   |      - Guid:6DED81A3429984C40ABCCC8F18C83346 Class:Actor Name:SimpleWall_C_UAID_842AFD18ADD1CE0801_2072793881 SpatiallyLoaded:true Bounds:IsValid=true, Min=(X=5950.000 Y=5972.500 Z=-422.500), Max=(X=6050.000 Y=9047.500 Z=402.500) RuntimeGrid:None EditorOnly:false LevelBoundsRelevant:true HLODRelevant:false FolderPath:None FolderGuid:00000000000000000000000000000000 Parent:00000000000000000000000000000000
   |      - Guid:6FBE00CC413AC769C4C6EA9397167798 Class:Actor Name:SimpleWall_C_UAID_842AFD18ADD1CE0801_1610484876 SpatiallyLoaded:true Bounds:IsValid=true, Min=(X=4055.000 Y=5971.346 Z=-535.000), Max=(X=6055.000 Y=9146.346 Z=-435.000) RuntimeGrid:None EditorOnly:false LevelBoundsRelevant:true HLODRelevant:false FolderPath:None FolderGuid:00000000000000000000000000000000 Parent:00000000000000000000000000000000
   |      - Guid:6FEFB3BD4EB37B849EF0D4AC80F83855 Class:WorldDataLayers Name:WorldDataLayers SpatiallyLoaded:false Bounds:IsValid=true, Min=(X=0.000 Y=0.000 Z=0.000), Max=(X=0.000 Y=0.000 Z=0.000) RuntimeGrid:None EditorOnly:false LevelBoundsRelevant:false HLODRelevant:false FolderPath:None FolderGuid:00000000000000000000000000000000 Parent:00000000000000000000000000000000
   |      - Guid:70BB11A544181BD4D5180D9AD80C6D7A Class:StaticMeshActor Name:StaticMeshActor_UAID_2CF05DA2235F340801_1291691776 SpatiallyLoaded:true Bounds:IsValid=true, Min=(X=4180.000 Y=2490.000 Z=-730.000), Max=(X=4280.000 Y=2890.000 Z=-30.000) RuntimeGrid:None EditorOnly:false LevelBoundsRelevant:true HLODRelevant:true FolderPath:Playground FolderGuid:6C02BB504B69D1F3D7A624B130C18E5B Parent:00000000000000000000000000000000
   |      - Guid:710F51864AAEA0418E4BE39EA210550E Class:Actor Name:SimpleWall_C_UAID_842AFD18ADD1CD0801_1584629697 SpatiallyLoaded:true Bounds:IsValid=true, Min=(X=3182.500 Y=8145.000 Z=-445.000), Max=(X=3607.500 Y=9045.000 Z=5.000) RuntimeGrid:None EditorOnly:false LevelBoundsRelevant:true HLODRelevant:false FolderPath:None FolderGuid:00000000000000000000000000000000 Parent:00000000000000000000000000000000
   |      - Guid:736F1EF445FC01FD4C15D4B7B55735E3 Class:Actor Name:SimpleWall_C_UAID_842AFD18ADD1EC0801_1757792165 SpatiallyLoaded:true Bounds:IsValid=true, Min=(X=1415.000 Y=-995.000 Z=-445.000), Max=(X=1515.000 Y=-395.000 Z=405.000) RuntimeGrid:None EditorOnly:false LevelBoundsRelevant:true HLODRelevant:false FolderPath:None FolderGuid:00000000000000000000000000000000 Parent:00000000000000000000000000000000
   |      - Guid:777EB4B34138AD353A182087FDD26DD4 Class:StaticMeshActor Name:StaticMeshActor_UAID_2CF05DA2235F340801_1308719777 SpatiallyLoaded:true Bounds:IsValid=true, Min=(X=4180.000 Y=4335.000 Z=-730.000), Max=(X=4280.000 Y=5510.000 Z=-30.000) RuntimeGrid:None EditorOnly:false LevelBoundsRelevant:true HLODRelevant:true FolderPath:Playground FolderGuid:6C02BB504B69D1F3D7A624B130C18E5B Parent:00000000000000000000000000000000
   |      - Guid:77D2D1B34687D692AAA3EC8F3FE90C0F Class:Actor Name:SimpleWall_C_UAID_842AFD18ADD1EE0801_1895865551 SpatiallyLoaded:true Bounds:IsValid=true, Min=(X=-3197.500 Y=-3420.000 Z=-450.000), Max=(X=-2522.500 Y=-3320.000 Z=400.000) RuntimeGrid:None EditorOnly:false LevelBoundsRelevant:true HLODRelevant:false FolderPath:None FolderGuid:00000000000000000000000000000000 Parent:00000000000000000000000000000000
   |      - Guid:78907B824E304E162A9A02B9095F1FA1 Class:StaticMeshActor Name:StaticMeshActor_43 SpatiallyLoaded:true Bounds:IsValid=true, Min=(X=651.292 Y=399.199 Z=0.013), Max=(X=787.894 Y=535.801 Z=100.013) RuntimeGrid:None EditorOnly:false LevelBoundsRelevant:true HLODRelevant:false FolderPath:SimulatedCubes FolderGuid:9AEEADCB4DC6C647D6E7C0B4EDA1744F Parent:00000000000000000000000000000000
   |      - Guid:78962436449980EF40CD4BBD74CAF5C7 Class:Actor Name:SimpleWall_C_UAID_842AFD18ADD1EE0801_2091880558 SpatiallyLoaded:true Bounds:IsValid=true, Min=(X=-3486.250 Y=-105.000 Z=-22.500), Max=(X=-1673.750 Y=-5.000 Z=402.500) RuntimeGrid:None EditorOnly:false LevelBoundsRelevant:true HLODRelevant:false FolderPath:None FolderGuid:00000000000000000000000000000000 Parent:00000000000000000000000000000000
   |      - Guid:78CAF7514C7533F30BD2F19A017AAB65 Class:StaticMeshActor Name:StaticMeshActor_0 SpatiallyLoaded:true Bounds:IsValid=true, Min=(X=0.000 Y=2060.000 Z=-50.000), Max=(X=1400.000 Y=3485.000 Z=0.000) RuntimeGrid:None EditorOnly:false LevelBoundsRelevant:true HLODRelevant:true FolderPath:Playground FolderGuid:6C02BB504B69D1F3D7A624B130C18E5B Parent:00000000000000000000000000000000
   |      - Guid:7C72303F4D58D8C3FBE1A5936F49C7FF Class:Actor Name:SimpleWall_C_UAID_842AFD18ADD1EC0801_1500690156 SpatiallyLoaded:true Bounds:IsValid=true, Min=(X=1862.500 Y=-1085.000 Z=-22.500), Max=(X=2537.500 Y=-985.000 Z=402.500) RuntimeGrid:None EditorOnly:false LevelBoundsRelevant:true HLODRelevant:false FolderPath:None FolderGuid:00000000000000000000000000000000 Parent:00000000000000000000000000000000
   |      - Guid:7E93E58441A8ABFBFD466D920284B1F5 Class:Actor Name:SimpleWall_C_UAID_842AFD18ADD1CB0801_1713325336 SpatiallyLoaded:true Bounds:IsValid=true, Min=(X=2440.000 Y=3147.500 Z=-100.000), Max=(X=2540.000 Y=5222.500 Z=400.000) RuntimeGrid:None EditorOnly:false LevelBoundsRelevant:true HLODRelevant:false FolderPath:None FolderGuid:00000000000000000000000000000000 Parent:00000000000000000000000000000000
   |      - Guid:8251178C46B20830867D9C8E5FE9E88A Class:Actor Name:SimpleWall_C_UAID_842AFD18ADD1EE0801_1865976549 SpatiallyLoaded:true Bounds:IsValid=true, Min=(X=-1755.000 Y=-3373.750 Z=-22.500), Max=(X=-1655.000 Y=-1086.250 Z=402.500) RuntimeGrid:None EditorOnly:false LevelBoundsRelevant:true HLODRelevant:false FolderPath:None FolderGuid:00000000000000000000000000000000 Parent:00000000000000000000000000000000
   |      - Guid:855030834C954C9BDDD996883600DD24 Class:StaticMeshActor Name:StaticMeshActor_UAID_842AFD18ADD1AE0801_1953060231 SpatiallyLoaded:true Bounds:IsValid=true, Min=(X=5.000 Y=3405.000 Z=0.000), Max=(X=1405.000 Y=3505.000 Z=400.000) RuntimeGrid:None EditorOnly:false LevelBoundsRelevant:true HLODRelevant:true FolderPath:Playground FolderGuid:6C02BB504B69D1F3D7A624B130C18E5B Parent:00000000000000000000000000000000
   |      - Guid:8559D1384B14F466E8927697A36C1D78 Class:StaticMeshActor Name:StaticMeshActor_9 SpatiallyLoaded:true Bounds:IsValid=true, Min=(X=-0.000 Y=1970.000 Z=0.000), Max=(X=100.000 Y=3495.000 Z=400.000) RuntimeGrid:None EditorOnly:false LevelBoundsRelevant:true HLODRelevant:true FolderPath:Playground FolderGuid:6C02BB504B69D1F3D7A624B130C18E5B Parent:00000000000000000000000000000000
   |      - Guid:867E71654BF6D98774E5F883021A8E26 Class:PhysicsVolume Name:PhysicsVolume_UAID_842AFD18ADD13F0A01_1582973811 SpatiallyLoaded:true Bounds:IsValid=true, Min=(X=1975.000 Y=5327.500 Z=-445.000), Max=(X=3625.000 Y=9102.500 Z=-195.000) RuntimeGrid:None EditorOnly:false LevelBoundsRelevant:false HLODRelevant:false FolderPath:Water FolderGuid:6D651D09482980AB89881FB934893354 Parent:00000000000000000000000000000000
   |      - Guid:8953126A4513306DB4C853A97D5C7CFC Class:Actor Name:SimpleWall_C_UAID_842AFD18ADD1EB0801_1995890967 SpatiallyLoaded:true Bounds:IsValid=true, Min=(X=3050.000 Y=3147.500 Z=-100.000), Max=(X=3150.000 Y=5222.500 Z=400.000) RuntimeGrid:None EditorOnly:false LevelBoundsRelevant:true HLODRelevant:false FolderPath:None FolderGuid:00000000000000000000000000000000 Parent:00000000000000000000000000000000
   |      - Guid:8CEB8E774D4C5E7B31E238A2C739E3BD Class:Actor Name:SimpleWall_C_UAID_842AFD18ADD1CB0801_2029699339 SpatiallyLoaded:true Bounds:IsValid=true, Min=(X=1967.500 Y=5220.000 Z=-422.500), Max=(X=2542.500 Y=5320.000 Z=402.500) RuntimeGrid:None EditorOnly:false LevelBoundsRelevant:true HLODRelevant:false FolderPath:None FolderGuid:00000000000000000000000000000000 Parent:00000000000000000000000000000000
   |      - Guid:9091F0844DE4EDF70592BCA337B8D758 Class:Actor Name:SimpleWall_C_UAID_842AFD18ADD1EE0801_1908834552 SpatiallyLoaded:true Bounds:IsValid=true, Min=(X=-2625.000 Y=-3373.750 Z=-22.500), Max=(X=-2525.000 Y=-1086.250 Z=402.500) RuntimeGrid:None EditorOnly:false LevelBoundsRelevant:true HLODRelevant:false FolderPath:None FolderGuid:00000000000000000000000000000000 Parent:00000000000000000000000000000000
   |      - Guid:90B7B8D3420C2EABA931D3A6A69DF696 Class:StaticMeshActor Name:StaticMeshActor_3 SpatiallyLoaded:true Bounds:IsValid=true, Min=(X=0.000 Y=1970.000 Z=0.000), Max=(X=1400.000 Y=2070.000 Z=400.000) RuntimeGrid:None EditorOnly:false LevelBoundsRelevant:true HLODRelevant:true FolderPath:Playground FolderGuid:6C02BB504B69D1F3D7A624B130C18E5B Parent:00000000000000000000000000000000
   |      - Guid:912EFA6E4B3BEF9C17999198751F9FFC Class:Actor Name:SimpleWall_C_UAID_842AFD18ADD1EE0801_2073150557 SpatiallyLoaded:true Bounds:IsValid=true, Min=(X=-1760.000 Y=-612.222 Z=-17.500), Max=(X=-1660.000 Y=-12.222 Z=407.500) RuntimeGrid:None EditorOnly:false LevelBoundsRelevant:true HLODRelevant:false FolderPath:None FolderGuid:00000000000000000000000000000000 Parent:00000000000000000000000000000000
   |      - Guid:9C09316C42800D1F19378589198DFB9A Class:Actor Name:SimpleWall_C_UAID_842AFD18ADD1EE0801_1333362539 SpatiallyLoaded:true Bounds:IsValid=true, Min=(X=-200.000 Y=-2930.000 Z=-22.500), Max=(X=-100.000 Y=-1530.000 Z=402.500) RuntimeGrid:None EditorOnly:false LevelBoundsRelevant:true HLODRelevant:false FolderPath:None FolderGuid:00000000000000000000000000000000 Parent:00000000000000000000000000000000
   |      - Guid:9F52C9BA46249902C5306D9CC4F8AE35 Class:Actor Name:SimpleWall_C_UAID_842AFD18ADD1EE0801_1924512553 SpatiallyLoaded:true Bounds:IsValid=true, Min=(X=-3183.750 Y=-6100.000 Z=-535.000), Max=(X=3653.750 Y=-3350.000 Z=-435.000) RuntimeGrid:None EditorOnly:false LevelBoundsRelevant:true HLODRelevant:false FolderPath:None FolderGuid:00000000000000000000000000000000 Parent:00000000000000000000000000000000
   |      - Guid:A02F77F446113849106D16A927E9002B Class:Actor Name:SimpleWall_C_UAID_842AFD18ADD1ED0801_1335742349 SpatiallyLoaded:true Bounds:IsValid=true, Min=(X=-1752.500 Y=-1015.000 Z=-472.500), Max=(X=-1177.500 Y=-615.000 Z=2.500) RuntimeGrid:None EditorOnly:false LevelBoundsRelevant:true HLODRelevant:false FolderPath:None FolderGuid:00000000000000000000000000000000 Parent:00000000000000000000000000000000
   |      - Guid:A2FC0B964716C80B64F3AC95C035D0FA Class:Actor Name:SimpleWall_C_UAID_842AFD18ADD1EC0801_1380724152 SpatiallyLoaded:true Bounds:IsValid=true, Min=(X=3630.000 Y=-990.000 Z=-22.500), Max=(X=3730.000 Y=660.000 Z=402.500) RuntimeGrid:None EditorOnly:false LevelBoundsRelevant:true HLODRelevant:false FolderPath:None FolderGuid:00000000000000000000000000000000 Parent:00000000000000000000000000000000
   |      - Guid:A354B1B24E617A525DC6B48CCDE2417E Class:PlayerStart Name:PlayerStart_0 SpatiallyLoaded:false Bounds:IsValid=true, Min=(X=2990.000 Y=2690.000 Z=0.013), Max=(X=3070.000 Y=2770.000 Z=184.013) RuntimeGrid:None EditorOnly:false LevelBoundsRelevant:true HLODRelevant:false FolderPath:None FolderGuid:00000000000000000000000000000000 Parent:00000000000000000000000000000000
   |      - Guid:A3EBBB494358E42861206E8D3283E7D4 Class:Actor Name:SimpleWall_C_UAID_842AFD18ADD1EF0801_1530692744 SpatiallyLoaded:true Bounds:IsValid=true, Min=(X=-6537.500 Y=-3565.000 Z=-27.500), Max=(X=-4462.500 Y=-3465.000 Z=397.500) RuntimeGrid:None EditorOnly:false LevelBoundsRelevant:true HLODRelevant:false FolderPath:None FolderGuid:00000000000000000000000000000000 Parent:00000000000000000000000000000000
   |      - Guid:A4B50CB249138C6F0372FF81BEBB2CD8 Class:Actor Name:SimpleWall_C_UAID_842AFD18ADD1EF0801_1554920747 SpatiallyLoaded:true Bounds:IsValid=true, Min=(X=-4460.000 Y=-5738.750 Z=-27.500), Max=(X=-4360.000 Y=-4551.250 Z=397.500) RuntimeGrid:None EditorOnly:false LevelBoundsRelevant:true HLODRelevant:false FolderPath:None FolderGuid:00000000000000000000000000000000 Parent:00000000000000000000000000000000
   |      - Guid:A50198874BF8F01C8B74E9A9CCEADD38 Class:StaticMeshActor Name:StaticMeshActor_UAID_2CF05DA2235F330801_1769771597 SpatiallyLoaded:true Bounds:IsValid=true, Min=(X=4180.000 Y=2015.000 Z=-730.000), Max=(X=4280.000 Y=2490.000 Z=395.000) RuntimeGrid:None EditorOnly:false LevelBoundsRelevant:true HLODRelevant:true FolderPath:Playground FolderGuid:6C02BB504B69D1F3D7A624B130C18E5B Parent:00000000000000000000000000000000
   |      - Guid:A5DDD03744E341315587C18B74218DB4 Class:Actor Name:SimpleWall_C_UAID_842AFD18ADD1EE0801_1179293535 SpatiallyLoaded:true Bounds:IsValid=true, Min=(X=250.000 Y=-1430.000 Z=-100.000), Max=(X=350.000 Y=-1080.000 Z=400.000) RuntimeGrid:None EditorOnly:false LevelBoundsRelevant:true HLODRelevant:false FolderPath:None FolderGuid:00000000000000000000000000000000 Parent:00000000000000000000000000000000
   |      - Guid:A823D36C41B18CB9E82C95AD361277D8 Class:PostProcessVolume Name:PostProcessVolume_UAID_842AFD18ADD13F0A01_1866973813 SpatiallyLoaded:true Bounds:IsValid=true, Min=(X=1982.500 Y=5140.000 Z=-490.000), Max=(X=3607.500 Y=9040.000 Z=-190.000) RuntimeGrid:None EditorOnly:false LevelBoundsRelevant:false HLODRelevant:false FolderPath:Water FolderGuid:6D651D09482980AB89881FB934893354 Parent:12632AEB43502262E35EC4BB68B816D4
   |      - Guid:AA9B6FDB457AE6BD00FCFFA77C2105C4 Class:Actor Name:SimpleWall_C_UAID_842AFD18ADD1ED0801_2048509351 SpatiallyLoaded:true Bounds:IsValid=true, Min=(X=2440.000 Y=-1430.000 Z=-100.000), Max=(X=2540.000 Y=-1080.000 Z=400.000) RuntimeGrid:None EditorOnly:false LevelBoundsRelevant:true HLODRelevant:false FolderPath:None FolderGuid:00000000000000000000000000000000 Parent:00000000000000000000000000000000
   |      - Guid:ABCC70AF47CAD34FCA9B7FBE990054D8 Class:Actor Name:SimpleWall_C_UAID_842AFD18ADD1EC0801_1640720159 SpatiallyLoaded:true Bounds:IsValid=true, Min=(X=-1475.000 Y=-1090.000 Z=-535.000), Max=(X=1525.000 Y=760.000 Z=-435.000) RuntimeGrid:None EditorOnly:false LevelBoundsRelevant:true HLODRelevant:false FolderPath:None FolderGuid:00000000000000000000000000000000 Parent:00000000000000000000000000000000
   |      - Guid:AC416124434D9EEC0A6D4E943A673222 Class:Actor Name:SimpleWall_C_UAID_842AFD18ADD1EC0801_1525750158 SpatiallyLoaded:true Bounds:IsValid=true, Min=(X=1865.000 Y=-995.000 Z=-22.500), Max=(X=1965.000 Y=-395.000 Z=402.500) RuntimeGrid:None EditorOnly:false LevelBoundsRelevant:true HLODRelevant:false FolderPath:None FolderGuid:00000000000000000000000000000000 Parent:00000000000000000000000000000000
   |      - Guid:AC83995C4BAF96F40353CCB3444AC36E Class:Actor Name:SimpleWall_C_UAID_842AFD18ADD1EF0801_1202837737 SpatiallyLoaded:true Bounds:IsValid=true, Min=(X=-2625.000 Y=-1217.222 Z=-17.500), Max=(X=-2525.000 Y=-617.222 Z=407.500) RuntimeGrid:None EditorOnly:false LevelBoundsRelevant:true HLODRelevant:false FolderPath:None FolderGuid:00000000000000000000000000000000 Parent:00000000000000000000000000000000
   |      - Guid:AF30EBE148A08F701D2AD3A1609AF808 Class:Actor Name:SimpleWall_C_UAID_842AFD18ADD1CB0801_1609470335 SpatiallyLoaded:true Bounds:IsValid=true, Min=(X=2537.500 Y=3131.346 Z=-100.000), Max=(X=3062.500 Y=5306.346 Z=0.000) RuntimeGrid:None EditorOnly:false LevelBoundsRelevant:true HLODRelevant:false FolderPath:None FolderGuid:00000000000000000000000000000000 Parent:00000000000000000000000000000000
   |      - Guid:B0718D6846706384220C03973177EDC1 Class:StaticMeshActor Name:StaticMeshActor_44 SpatiallyLoaded:true Bounds:IsValid=true, Min=(X=599.330 Y=369.199 Z=100.013), Max=(X=735.933 Y=505.801 Z=200.013) RuntimeGrid:None EditorOnly:false LevelBoundsRelevant:true HLODRelevant:false FolderPath:SimulatedCubes FolderGuid:9AEEADCB4DC6C647D6E7C0B4EDA1744F Parent:00000000000000000000000000000000
   |      - Guid:B13EFA2B4F2E2C94CD96F5BD7C4CBC2D Class:Actor Name:SimpleWall_C_UAID_842AFD18ADD1CB0801_2121299342 SpatiallyLoaded:true Bounds:IsValid=true, Min=(X=1937.500 Y=5288.846 Z=-535.000), Max=(X=3662.500 Y=9138.846 Z=-435.000) RuntimeGrid:None EditorOnly:false LevelBoundsRelevant:true HLODRelevant:false FolderPath:None FolderGuid:00000000000000000000000000000000 Parent:00000000000000000000000000000000
   |      - Guid:B2E0B947444F914701519780FE7FFE10 Class:Actor Name:SimpleWall_C_UAID_842AFD18ADD1CE0801_1627497877 SpatiallyLoaded:true Bounds:IsValid=true, Min=(X=3650.000 Y=9045.000 Z=-422.500), Max=(X=6050.000 Y=9145.000 Z=402.500) RuntimeGrid:None EditorOnly:false LevelBoundsRelevant:true HLODRelevant:false FolderPath:None FolderGuid:00000000000000000000000000000000 Parent:00000000000000000000000000000000
   |      - Guid:B78C37A946D479F38FE365BA4208ADBB Class:Actor Name:SimpleWall_C_UAID_842AFD18ADD1CB0801_1907165338 SpatiallyLoaded:true Bounds:IsValid=true, Min=(X=3052.500 Y=5220.000 Z=-422.500), Max=(X=3627.500 Y=5320.000 Z=402.500) RuntimeGrid:None EditorOnly:false LevelBoundsRelevant:true HLODRelevant:false FolderPath:None FolderGuid:00000000000000000000000000000000 Parent:00000000000000000000000000000000
   |      - Guid:BA0ECD474FBCCBF8CCF383A217D14B08 Class:Actor Name:SimpleWall_C_UAID_842AFD18ADD1EC0801_1086809149 SpatiallyLoaded:true Bounds:IsValid=true, Min=(X=1875.000 Y=-1090.000 Z=-100.000), Max=(X=3725.000 Y=760.000 Z=0.000) RuntimeGrid:None EditorOnly:false LevelBoundsRelevant:true HLODRelevant:false FolderPath:None FolderGuid:00000000000000000000000000000000 Parent:00000000000000000000000000000000
   |      - Guid:BAD363464AC0A5D3ACE304AEDE97337C Class:Actor Name:SimpleWall_C_UAID_842AFD18ADD1EC0801_2085546170 SpatiallyLoaded:true Bounds:IsValid=true, Min=(X=1097.500 Y=-1002.500 Z=-472.500), Max=(X=1422.500 Y=72.500 Z=2.500) RuntimeGrid:None EditorOnly:false LevelBoundsRelevant:true HLODRelevant:false FolderPath:None FolderGuid:00000000000000000000000000000000 Parent:00000000000000000000000000000000
   |      - Guid:BDD94C2F48BD7D93DE40E2902305A1DD Class:StaticMeshActor Name:StaticMeshActor_UAID_2CF05DA2235F310801_2048396231 SpatiallyLoaded:true Bounds:IsValid=true, Min=(X=1300.000 Y=2930.000 Z=0.000), Max=(X=1400.000 Y=3405.000 Z=400.000) RuntimeGrid:None EditorOnly:false LevelBoundsRelevant:true HLODRelevant:true FolderPath:Playground FolderGuid:6C02BB504B69D1F3D7A624B130C18E5B Parent:00000000000000000000000000000000
   |      - Guid:BF5CF0C64F72F3EC42DBEB846499755D Class:Actor Name:SimpleWall_C_UAID_842AFD18ADD1EE0801_1119344534 SpatiallyLoaded:true Bounds:IsValid=true, Min=(X=-197.500 Y=-3025.000 Z=-22.500), Max=(X=3727.500 Y=-2925.000 Z=402.500) RuntimeGrid:None EditorOnly:false LevelBoundsRelevant:true HLODRelevant:false FolderPath:None FolderGuid:00000000000000000000000000000000 Parent:00000000000000000000000000000000
   |      - Guid:C0C56B9644AE3D40CAFF6A878DB29844 Class:StaticMeshActor Name:StaticMeshActor_UAID_A4AE111137DC5EFB00_2001720423 SpatiallyLoaded:true Bounds:IsValid=true, Min=(X=-1638400.000 Y=-1638400.000 Z=-1638400.000), Max=(X=1638400.000 Y=1638400.000 Z=1638400.000) RuntimeGrid:None EditorOnly:false LevelBoundsRelevant:true HLODRelevant:true FolderPath:Lighting FolderGuid:0BA5F0A04EADB18E70D5B180D08FA34B Parent:00000000000000000000000000000000
   |      - Guid:C22CE07C4B87D685137FDBBC10FC92C6 Class:SkyAtmosphere Name:SkyAtmosphere_0 SpatiallyLoaded:false Bounds:IsValid=true, Min=(X=0.000 Y=0.000 Z=1020.000), Max=(X=0.000 Y=0.000 Z=1020.000) RuntimeGrid:None EditorOnly:false LevelBoundsRelevant:false HLODRelevant:false FolderPath:Lighting FolderGuid:0BA5F0A04EADB18E70D5B180D08FA34B Parent:00000000000000000000000000000000
   |      - Guid:C2FF592B4B99B999EBC770B676DFDDC3 Class:Actor Name:SimpleWall_C_UAID_842AFD18ADD1EF0801_1171272736 SpatiallyLoaded:true Bounds:IsValid=true, Min=(X=-3486.250 Y=-715.000 Z=-22.500), Max=(X=-2573.750 Y=-615.000 Z=402.500) RuntimeGrid:None EditorOnly:false LevelBoundsRelevant:true HLODRelevant:false FolderPath:None FolderGuid:00000000000000000000000000000000 Parent:00000000000000000000000000000000
   |      - Guid:C33F910E40683E1E9DA814829B746A3B Class:Actor Name:SimpleWall_C_UAID_842AFD18ADD1CC0801_1216418519 SpatiallyLoaded:true Bounds:IsValid=true, Min=(X=2407.500 Y=5300.000 Z=-445.000), Max=(X=3182.500 Y=5850.000 Z=5.000) RuntimeGrid:None EditorOnly:false LevelBoundsRelevant:true HLODRelevant:false FolderPath:None FolderGuid:00000000000000000000000000000000 Parent:00000000000000000000000000000000
   |      - Guid:C3EEE7EE4BC79BE402CF89942FF1F2A5 Class:Actor Name:SimpleWall_C_UAID_842AFD18ADD1EC0801_1365090151 SpatiallyLoaded:true Bounds:IsValid=true, Min=(X=1862.500 Y=660.000 Z=-22.500), Max=(X=2537.500 Y=760.000 Z=402.500) RuntimeGrid:None EditorOnly:false LevelBoundsRelevant:true HLODRelevant:false FolderPath:None FolderGuid:00000000000000000000000000000000 Parent:00000000000000000000000000000000
   |      - Guid:C5E7C6EE4BA7DB9B6105FCBA32CA650D Class:Actor Name:SimpleWall_C_UAID_842AFD18ADD1EE0801_1179298537 SpatiallyLoaded:true Bounds:IsValid=true, Min=(X=352.500 Y=-1431.154 Z=-100.000), Max=(X=677.500 Y=-1081.154 Z=0.000) RuntimeGrid:None EditorOnly:false LevelBoundsRelevant:true HLODRelevant:false FolderPath:None FolderGuid:00000000000000000000000000000000 Parent:00000000000000000000000000000000
   |      - Guid:C6B1658745E9E6F7039F4BAA38BDC1D5 Class:Actor Name:SimpleWall_C_UAID_842AFD18ADD1EF0801_1382688739 SpatiallyLoaded:true Bounds:IsValid=true, Min=(X=-3200.000 Y=-3981.250 Z=-450.000), Max=(X=-3100.000 Y=-3318.750 Z=400.000) RuntimeGrid:None EditorOnly:false LevelBoundsRelevant:true HLODRelevant:false FolderPath:None FolderGuid:00000000000000000000000000000000 Parent:00000000000000000000000000000000
   |      - Guid:C76BDC3041ECABD12B3E33893080CF39 Class:Actor Name:SimpleWall_C_UAID_842AFD18ADD1CE0801_2034672880 SpatiallyLoaded:true Bounds:IsValid=true, Min=(X=4055.000 Y=5977.500 Z=-422.500), Max=(X=4155.000 Y=8352.500 Z=402.500) RuntimeGrid:None EditorOnly:false LevelBoundsRelevant:true HLODRelevant:false FolderPath:None FolderGuid:00000000000000000000000000000000 Parent:00000000000000000000000000000000
   |      - Guid:C863832042E610E4393A9D9AD8399F92 Class:Actor Name:RedIce_C_UAID_842AFD18ADD1C90A01_1792716095 SpatiallyLoaded:true Bounds:IsValid=true, Min=(X=1104.000 Y=3184.000 Z=-36.000), Max=(X=1216.000 Y=3296.000 Z=76.000) RuntimeGrid:None EditorOnly:false LevelBoundsRelevant:true HLODRelevant:false FolderPath:None FolderGuid:00000000000000000000000000000000 Parent:00000000000000000000000000000000
   |      - Guid:CA2B9ADA4C2C6D49C0BCB69D221F6EF1 Class:Actor Name:SimpleWall_C_UAID_842AFD18ADD1EB0801_2001256970 SpatiallyLoaded:true Bounds:IsValid=true, Min=(X=3050.000 Y=755.000 Z=-100.000), Max=(X=3150.000 Y=2255.000 Z=400.000) RuntimeGrid:None EditorOnly:false LevelBoundsRelevant:true HLODRelevant:false FolderPath:None FolderGuid:00000000000000000000000000000000 Parent:00000000000000000000000000000000
   |      - Guid:CC2D00F9436D0736AF1FF281B8FB3653 Class:Actor Name:SimpleWall_C_UAID_842AFD18ADD1EE0801_1488712543 SpatiallyLoaded:true Bounds:IsValid=true, Min=(X=-2603.750 Y=-3406.250 Z=-100.000), Max=(X=-1666.250 Y=6.250 Z=0.000) RuntimeGrid:None EditorOnly:false LevelBoundsRelevant:true HLODRelevant:false FolderPath:None FolderGuid:00000000000000000000000000000000 Parent:00000000000000000000000000000000
   |      - Guid:CE8D82634660FCDB3120E2B8D547C533 Class:PostProcessVolume Name:PostProcessVolume_0 SpatiallyLoaded:false Bounds:IsValid=true, Min=(X=0.000 Y=0.000 Z=400.000), Max=(X=200.000 Y=200.000 Z=600.000) RuntimeGrid:None EditorOnly:false LevelBoundsRelevant:false HLODRelevant:false FolderPath:Lighting FolderGuid:0BA5F0A04EADB18E70D5B180D08FA34B Parent:00000000000000000000000000000000
   |      - Guid:CFFF5E384BFFD1BFC9F6CB80323C2027 Class:StaticMeshActor Name:StaticMeshActor_UAID_2CF05DA2235F330801_2129011599 SpatiallyLoaded:true Bounds:IsValid=true, Min=(X=4215.000 Y=2435.000 Z=-50.000), Max=(X=4640.000 Y=3010.000 Z=0.000) RuntimeGrid:None EditorOnly:false LevelBoundsRelevant:true HLODRelevant:true FolderPath:Playground FolderGuid:6C02BB504B69D1F3D7A624B130C18E5B Parent:00000000000000000000000000000000
   |      - Guid:D6FF17F44AF984DF3D4562BD47F417FE Class:Actor Name:SimpleWall_C_UAID_842AFD18ADD1EC0801_1706576162 SpatiallyLoaded:true Bounds:IsValid=true, Min=(X=1420.000 Y=-427.500 Z=-100.000), Max=(X=1970.000 Y=97.500 Z=0.000) RuntimeGrid:None EditorOnly:false LevelBoundsRelevant:true HLODRelevant:false FolderPath:None FolderGuid:00000000000000000000000000000000 Parent:00000000000000000000000000000000
   |      - Guid:D73C57EE430225F2B3BED7A193BE0113 Class:Actor Name:SimpleWall_C_UAID_842AFD18ADD1EE0801_1733008547 SpatiallyLoaded:true Bounds:IsValid=true, Min=(X=-1750.000 Y=-3430.000 Z=-450.000), Max=(X=3700.000 Y=-3330.000 Z=400.000) RuntimeGrid:None EditorOnly:false LevelBoundsRelevant:true HLODRelevant:false FolderPath:None FolderGuid:00000000000000000000000000000000 Parent:00000000000000000000000000000000
   |      - Guid:D75972C442ECE7C70459D9AB3D502AFC Class:StaticMeshActor Name:StaticMeshActor_UAID_2CF05DA2235F330801_1769771598 SpatiallyLoaded:true Bounds:IsValid=true, Min=(X=4180.000 Y=2490.000 Z=0.000), Max=(X=4200.000 Y=2890.000 Z=400.500) RuntimeGrid:None EditorOnly:false LevelBoundsRelevant:true HLODRelevant:true FolderPath:None FolderGuid:00000000000000000000000000000000 Parent:00000000000000000000000000000000
   |      - Guid:DB28F0D84D9AFD69821CD2A040A7768A Class:Actor Name:IcePlatform_C_UAID_2CF05DA2235FD20A01_1849622681 SpatiallyLoaded:true Bounds:IsValid=true, Min=(X=3202.500 Y=2662.500 Z=-12.500), Max=(X=3477.500 Y=2937.500 Z=24.000) RuntimeGrid:None EditorOnly:false LevelBoundsRelevant:true HLODRelevant:false FolderPath:None FolderGuid:00000000000000000000000000000000 Parent:00000000000000000000000000000000
   |      - Guid:DD6DCE2442CFF3569203D9BD56B755FD Class:Actor Name:SimpleWall_C_UAID_842AFD18ADD1EF0801_1595411748 SpatiallyLoaded:true Bounds:IsValid=true, Min=(X=-4475.000 Y=-3883.472 Z=-22.500), Max=(X=-4375.000 Y=-3470.972 Z=402.500) RuntimeGrid:None EditorOnly:false LevelBoundsRelevant:true HLODRelevant:false FolderPath:None FolderGuid:00000000000000000000000000000000 Parent:00000000000000000000000000000000
   |      - Guid:DD7F4312488E5BFA965DAFBE09228F54 Class:StaticMeshActor Name:StaticMeshActor_UAID_2CF05DA2235F330801_1243522591 SpatiallyLoaded:true Bounds:IsValid=true, Min=(X=3050.000 Y=2240.000 Z=0.000), Max=(X=4175.000 Y=2340.000 Z=400.000) RuntimeGrid:None EditorOnly:false LevelBoundsRelevant:true HLODRelevant:true FolderPath:Playground FolderGuid:6C02BB504B69D1F3D7A624B130C18E5B Parent:00000000000000000000000000000000
   |      - Guid:DED3CE9A43725211AB87BB900291BE8D Class:Actor Name:SimpleWall_C_UAID_842AFD18ADD1EC0801_1820999166 SpatiallyLoaded:true Bounds:IsValid=true, Min=(X=-1485.000 Y=-715.000 Z=-445.000), Max=(X=-1385.000 Y=735.000 Z=405.000) RuntimeGrid:None EditorOnly:false LevelBoundsRelevant:true HLODRelevant:false FolderPath:None FolderGuid:00000000000000000000000000000000 Parent:00000000000000000000000000000000
   |      - Guid:E072A3454304210B0AAD9BB90A086527 Class:Actor Name:SimpleWall_C_UAID_842AFD18ADD1EC0801_1500688155 SpatiallyLoaded:true Bounds:IsValid=true, Min=(X=3052.500 Y=-1085.000 Z=-22.500), Max=(X=3727.500 Y=-985.000 Z=402.500) RuntimeGrid:None EditorOnly:false LevelBoundsRelevant:true HLODRelevant:false FolderPath:None FolderGuid:00000000000000000000000000000000 Parent:00000000000000000000000000000000
   |      - Guid:E12F00EC438B28C4E2A8BC87CD3C664F Class:Actor Name:SimpleWall_C_UAID_842AFD18ADD1CB0801_2035578340 SpatiallyLoaded:true Bounds:IsValid=true, Min=(X=1870.000 Y=5217.500 Z=-422.500), Max=(X=1970.000 Y=9142.500 Z=402.500) RuntimeGrid:None EditorOnly:false LevelBoundsRelevant:true HLODRelevant:false FolderPath:None FolderGuid:00000000000000000000000000000000 Parent:00000000000000000000000000000000
   |      - Guid:E27AF95446910DF031CE4B91808D71FB Class:Actor Name:Water_C_UAID_2CF05DA2235FFD0A01_1168811247 SpatiallyLoaded:true Bounds:IsValid=true, Min=(X=2658.000 Y=2478.000 Z=-2.000), Max=(X=2962.000 Y=2782.000 Z=302.000) RuntimeGrid:None EditorOnly:false LevelBoundsRelevant:true HLODRelevant:false FolderPath:None FolderGuid:00000000000000000000000000000000 Parent:00000000000000000000000000000000
   |      - Guid:E5320C1B4FD9764CE7B54D8487AEC613 Class:SkyLight Name:SkyLight_0 SpatiallyLoaded:false Bounds:IsValid=true, Min=(X=0.000 Y=0.000 Z=690.000), Max=(X=0.000 Y=0.000 Z=690.000) RuntimeGrid:None EditorOnly:false LevelBoundsRelevant:false HLODRelevant:false FolderPath:Lighting FolderGuid:0BA5F0A04EADB18E70D5B180D08FA34B Parent:00000000000000000000000000000000
   |      - Guid:EAABD69141414F7B3394F5BB5CDB8441 Class:Actor Name:SimpleWall_C_UAID_842AFD18ADD1EC0801_1656303161 SpatiallyLoaded:true Bounds:IsValid=true, Min=(X=1515.000 Y=-500.000 Z=-22.500), Max=(X=1865.000 Y=-400.000 Z=402.500) RuntimeGrid:None EditorOnly:false LevelBoundsRelevant:true HLODRelevant:false FolderPath:None FolderGuid:00000000000000000000000000000000 Parent:00000000000000000000000000000000
   |      - Guid:ED1DD6144E8B0528E845F3A52B31ADF0 Class:Actor Name:SimpleWall_C_UAID_842AFD18ADD1EE0801_1418414541 SpatiallyLoaded:true Bounds:IsValid=true, Min=(X=-1755.000 Y=-1085.000 Z=-22.500), Max=(X=-1405.000 Y=-985.000 Z=402.500) RuntimeGrid:None EditorOnly:false LevelBoundsRelevant:true HLODRelevant:false FolderPath:None FolderGuid:00000000000000000000000000000000 Parent:00000000000000000000000000000000
   |      - Guid:ED6012EF4F0A138A32E256BB98E65DA5 Class:Actor Name:SimpleWall_C_UAID_842AFD18ADD1EB0801_2001252969 SpatiallyLoaded:true Bounds:IsValid=true, Min=(X=2440.000 Y=755.000 Z=-100.000), Max=(X=2540.000 Y=2255.000 Z=400.000) RuntimeGrid:None EditorOnly:false LevelBoundsRelevant:true HLODRelevant:false FolderPath:None FolderGuid:00000000000000000000000000000000 Parent:00000000000000000000000000000000
   |      - Guid:EF2768CE4239141C6815288F9E83831A Class:Actor Name:SimpleWall_C_UAID_842AFD18ADD1EF0801_1620073749 SpatiallyLoaded:true Bounds:IsValid=true, Min=(X=-6575.000 Y=-5738.472 Z=-22.500), Max=(X=-6475.000 Y=-3475.972 Z=402.500) RuntimeGrid:None EditorOnly:false LevelBoundsRelevant:true HLODRelevant:false FolderPath:None FolderGuid:00000000000000000000000000000000 Parent:00000000000000000000000000000000
   |      - Guid:F06096FD476DF6625DCD87A522E42B3F Class:Actor Name:SimpleWall_C_UAID_842AFD18ADD1EC0801_1235644150 SpatiallyLoaded:true Bounds:IsValid=true, Min=(X=3052.500 Y=660.000 Z=-22.500), Max=(X=3727.500 Y=760.000 Z=402.500) RuntimeGrid:None EditorOnly:false LevelBoundsRelevant:true HLODRelevant:false FolderPath:None FolderGuid:00000000000000000000000000000000 Parent:00000000000000000000000000000000
   |      - Guid:F07F1AF64C7C7C238EE1B4BF8C122DD8 Class:StaticMeshActor Name:StaticMeshActor_4 SpatiallyLoaded:true Bounds:IsValid=true, Min=(X=0.000 Y=3400.000 Z=0.000), Max=(X=1400.000 Y=3500.000 Z=400.000) RuntimeGrid:None EditorOnly:false LevelBoundsRelevant:true HLODRelevant:true FolderPath:Playground FolderGuid:6C02BB504B69D1F3D7A624B130C18E5B Parent:00000000000000000000000000000000
   |      - Guid:F0C6F03643197DF1F8E055A0187F0DEB Class:StaticMeshActor Name:StaticMeshActor_UAID_2CF05DA2235F340801_1356039779 SpatiallyLoaded:true Bounds:IsValid=true, Min=(X=918.056 Y=2124.649 Z=-10.451), Max=(X=1000.212 Y=2240.000 Z=70.451) RuntimeGrid:None EditorOnly:false LevelBoundsRelevant:true HLODRelevant:false FolderPath:None FolderGuid:00000000000000000000000000000000 Parent:00000000000000000000000000000000
   |      - Guid:F664E10D4DE3C50C3CC7FD99F23E2A93 Class:Actor Name:SimpleWall_C_UAID_842AFD18ADD1EF0801_1543037745 SpatiallyLoaded:true Bounds:IsValid=true, Min=(X=-6498.750 Y=-5740.000 Z=-27.500), Max=(X=-4461.250 Y=-5640.000 Z=397.500) RuntimeGrid:None EditorOnly:false LevelBoundsRelevant:true HLODRelevant:false FolderPath:None FolderGuid:00000000000000000000000000000000 Parent:00000000000000000000000000000000
   |      - Guid:F80621C9446867154938FE81375207DA Class:DirectionalLight Name:DirectionalLight_1 SpatiallyLoaded:false Bounds:IsValid=true, Min=(X=-1048576.000 Y=-1048576.000 Z=-1048576.000), Max=(X=1048576.000 Y=1048576.000 Z=1048576.000) RuntimeGrid:None EditorOnly:false LevelBoundsRelevant:false HLODRelevant:false FolderPath:Lighting FolderGuid:0BA5F0A04EADB18E70D5B180D08FA34B Parent:00000000000000000000000000000000
   |      - Guid:F85F9A524FEAC2795E131BBFE29061BC Class:Actor Name:SimpleWall_C_UAID_842AFD18ADD1EF0801_1456761741 SpatiallyLoaded:true Bounds:IsValid=true, Min=(X=-4466.250 Y=-4555.000 Z=-27.500), Max=(X=-3103.750 Y=-4455.000 Z=397.500) RuntimeGrid:None EditorOnly:false LevelBoundsRelevant:true HLODRelevant:false FolderPath:None FolderGuid:00000000000000000000000000000000 Parent:00000000000000000000000000000000
   |      - Guid:F9B5B2414FD489E332EB01A336F7DF36 Class:Actor Name:SimpleWall_C_UAID_842AFD18ADD1EE0801_1580049544 SpatiallyLoaded:true Bounds:IsValid=true, Min=(X=-3492.500 Y=-723.750 Z=-100.000), Max=(X=-2517.500 Y=-36.250 Z=0.000) RuntimeGrid:None EditorOnly:false LevelBoundsRelevant:true HLODRelevant:false FolderPath:None FolderGuid:00000000000000000000000000000000 Parent:00000000000000000000000000000000
   |      - Guid:FB71716F492BD20FFA75EBADAE3AE2F4 Class:Actor Name:SimpleWall_C_UAID_842AFD18ADD1EE0801_1074181532 SpatiallyLoaded:true Bounds:IsValid=true, Min=(X=651.250 Y=-1530.000 Z=-22.500), Max=(X=2538.750 Y=-1430.000 Z=402.500) RuntimeGrid:None EditorOnly:false LevelBoundsRelevant:true HLODRelevant:false FolderPath:None FolderGuid:00000000000000000000000000000000 Parent:00000000000000000000000000000000
   |      - Guid:FCB9FDA14CA34B574E7BEE830A0F2B9B Class:Actor Name:Door_C_UAID_2CF05DA2235FCF0A01_2059502151 SpatiallyLoaded:true Bounds:IsValid=true, Min=(X=4188.000 Y=2629.625 Z=2.500), Max=(X=4192.000 Y=2750.375 Z=277.500) RuntimeGrid:None EditorOnly:false LevelBoundsRelevant:true HLODRelevant:false FolderPath:None FolderGuid:00000000000000000000000000000000 Parent:00000000000000000000000000000000
   |      - Guid:FE369CF94A071F9176E524A237CA92AA Class:StaticMeshActor Name:StaticMeshActor_1 SpatiallyLoaded:true Bounds:IsValid=true, Min=(X=551.699 Y=341.699 Z=0.013), Max=(X=688.301 Y=478.301 Z=100.013) RuntimeGrid:None EditorOnly:false LevelBoundsRelevant:true HLODRelevant:false FolderPath:SimulatedCubes FolderGuid:9AEEADCB4DC6C647D6E7C0B4EDA1744F Parent:00000000000000000000000000000000
